{
  "type": "FeatureCollection",
  "metadata": {
    "name": "Зона доставки ресторана Руми Алматы с 21 сентября",
    "creator": "Yandex Map Constructor",
    "description": "Зона доставки ресторана Руми Алматы с 21 сентября"
  },
  "features": [
    {
      "type": "Feature",
      "id": 0,
      "geometry": {
        "type": "Polygon",
        "coordinates": [
          [
            [
              76.88868003927576,
              43.194596434669876
            ],
            [
              76.88915210806233,
              43.19459643471813
            ],
            [
              76.89322906576498,
              43.19458073532704
            ],
            [
              76.8951602562557,
              43.19482407544405
            ],
            [
              76.89709144674649,
              43.19560118726372
            ],
            [
              76.9003100975642,
              43.19798740790813
            ],
            [
              76.9032942694912,
              43.199673203931994
            ],
            [
              76.90663171525696,
              43.20100271588634
            ],
            [
              76.90782339381086,
              43.20091941754941
            ],
            [
              76.90854984365805,
              43.20109563323615
            ],
            [
              76.91395717703202,
              43.204078123766635
            ],
            [
              76.91419321142533,
              43.207625526566645
            ],
            [
              76.91872078024245,
              43.21067047647746
            ],
            [
              76.9212527855526,
              43.21305610346871
            ],
            [
              76.92047401599508,
              43.21351434956775
            ],
            [
              76.91613327286585,
              43.21221479743481
            ],
            [
              76.91487614116055,
              43.21231517483381
            ],
            [
              76.91463639099466,
              43.21370871803738
            ],
            [
              76.91239736154915,
              43.21379632927181
            ],
            [
              76.91172474216829,
              43.21443324159212
            ],
            [
              76.91100920744326,
              43.21456793441326
            ],
            [
              76.9103506141894,
              43.21850963751078
            ],
            [
              76.90975639395185,
              43.21929687559051
            ],
            [
              76.9107483675246,
              43.22409338111023
            ],
            [
              76.91093580403125,
              43.22598076239166
            ],
            [
              76.91584392840419,
              43.22645589936929
            ],
            [
              76.91457868763631,
              43.234819651672886
            ],
            [
              76.91396752492449,
              43.23623212030569
            ],
            [
              76.91348510824544,
              43.23707977696331
            ],
            [
              76.90922140812546,
              43.235244802730314
            ],
            [
              76.89176994406094,
              43.22724236462768
            ],
            [
              76.87606843658133,
              43.21708170713823
            ],
            [
              76.87123503619576,
              43.21322879134738
            ],
            [
              76.86372476660112,
              43.20748426224682
            ],
            [
              76.86649760988527,
              43.204713893577264
            ],
            [
              76.86881632039376,
              43.20047561810416
            ],
            [
              76.87047624723286,
              43.19826607952391
            ],
            [
              76.8733807190548,
              43.1962762460628
            ],
            [
              76.8767173870693,
              43.195130211625376
            ],
            [
              76.88018280111649,
              43.19464353287907
            ],
            [
              76.88868003927576,
              43.194596434669876
            ]
          ]
        ]
      },
      "properties": {
        "description": "<price>1000</price> тенге доставка Rumi Нурлы Тау",
        "fill": "#82cdff",
        "fill-opacity": 0.6,
        "stroke": "#ed4543",
        "stroke-width": "1",
        "stroke-opacity": 0.9
      }
    },
    {
      "type": "Feature",
      "id": 1,
      "geometry": {
        "type": "Polygon",
        "coordinates": [
          [
            [
              76.83739130422784,
              43.245620993901774
            ],
            [
              76.8444294206829,
              43.227045725998046
            ],
            [
              76.85732284485013,
              43.21304107810239
            ],
            [
              76.86293976555702,
              43.20825603886203
            ],
            [
              76.8654097504627,
              43.20876531718476
            ],
            [
              76.87604057122815,
              43.21724041163953
            ],
            [
              76.88572725442043,
              43.2232036559235
            ],
            [
              76.89111021858325,
              43.227346195664495
            ],
            [
              76.88700521890311,
              43.25904219179058
            ],
            [
              76.88725594116838,
              43.26362791274535
            ],
            [
              76.88750911500952,
              43.26588928097339
            ],
            [
              76.88688312109238,
              43.27216016532352
            ],
            [
              76.88088641397403,
              43.27048412668405
            ],
            [
              76.87047283144543,
              43.26625379097719
            ],
            [
              76.8591922991009,
              43.26281058486033
            ],
            [
              76.84159700796317,
              43.25729037301696
            ],
            [
              76.83829252645683,
              43.25133048763527
            ],
            [
              76.83739130422784,
              43.245620993901774
            ]
          ]
        ]
      },
      "properties": {
        "description": "<price>1000</price> тенге доставка Rumi Абылай хана",
        "fill": "#82cdff",
        "fill-opacity": 0.6,
        "stroke": "#ed4543",
        "stroke-width": "1",
        "stroke-opacity": 0.9
      }
    },
    {
      "type": "Feature",
      "id": 2,
      "geometry": {
        "type": "Polygon",
        "coordinates": [
          [
            [
              76.95543485723863,
              43.20964194726386
            ],
            [
              76.98028284155257,
              43.19545156188917
            ],
            [
              76.98526102148422,
              43.195074780697595
            ],
            [
              76.97830873571763,
              43.21497817882399
            ],
            [
              76.97380262457261,
              43.229195370486835
            ],
            [
              76.97298723303204,
              43.23964428922276
            ],
            [
              76.94869714819315,
              43.23864026726584
            ],
            [
              76.91470819555641,
              43.23587912103507
            ],
            [
              76.91589044463399,
              43.22650890480394
            ],
            [
              76.91925008941006,
              43.21865273960368
            ],
            [
              76.9247503861082,
              43.21552747012206
            ],
            [
              76.93813997351059,
              43.22382900834879
            ],
            [
              76.95543485723863,
              43.20964194726386
            ]
          ]
        ]
      },
      "properties": {
        "description": "<price>800</price> тенге доставка Rumi Нурлы Тау",
        "fill": "#ffd21e",
        "fill-opacity": 0.6,
        "stroke": "#ed4543",
        "stroke-width": "1",
        "stroke-opacity": 0.9
      }
    },
    {
      "type": "Feature",
      "id": 3,
      "geometry": {
        "type": "Polygon",
        "coordinates": [
          [
            [
              76.98186478337152,
              43.25336849630056
            ],
            [
              76.98345821888321,
              43.257004269886814
            ],
            [
              76.97243121127902,
              43.256590863491354
            ],
            [
              76.97245378688363,
              43.25782701215493
            ],
            [
              76.97457921435601,
              43.26047455987446
            ],
            [
              76.97422791879146,
              43.26077338613235
            ],
            [
              76.9740911999481,
              43.26110357516705
            ],
            [
              76.97368901622872,
              43.2632693987316
            ],
            [
              76.97382327431228,
              43.26518424783195
            ],
            [
              76.974343770494,
              43.26581321404686
            ],
            [
              76.97178599100543,
              43.26965806547732
            ],
            [
              76.96897071945143,
              43.27243649562028
            ],
            [
              76.96085743740738,
              43.27172984300337
            ],
            [
              76.96059650343062,
              43.273699488495616
            ],
            [
              76.96149686518177,
              43.27459169668811
            ],
            [
              76.96299804175233,
              43.276455945628626
            ],
            [
              76.96323235519,
              43.27701739433516
            ],
            [
              76.96118699251622,
              43.27735045963295
            ],
            [
              76.95585172218556,
              43.277044555930274
            ],
            [
              76.94856380369217,
              43.27639373169436
            ],
            [
              76.9459536577207,
              43.275899683708104
            ],
            [
              76.9455747065473,
              43.275785970088464
            ],
            [
              76.945195755374,
              43.27545275866928
            ],
            [
              76.94426619165033,
              43.276260100458124
            ],
            [
              76.94305079436658,
              43.27671458366327
            ],
            [
              76.94143539133967,
              43.277811673853705
            ],
            [
              76.93960460538695,
              43.28134290619173
            ],
            [
              76.938074226844,
              43.28496798788157
            ],
            [
              76.93730944067478,
              43.28883180391151
            ],
            [
              76.93713089547529,
              43.290026915562386
            ],
            [
              76.93675923122676,
              43.29093986491063
            ],
            [
              76.93543654558245,
              43.2929067874412
            ],
            [
              76.93325251424437,
              43.29231864706109
            ],
            [
              76.92896563103864,
              43.29091543702131
            ],
            [
              76.92622476476674,
              43.28948837969019
            ],
            [
              76.91535576131602,
              43.28163254028622
            ],
            [
              76.90921166180978,
              43.28012388344017
            ],
            [
              76.903496715746,
              43.27839570202402
            ],
            [
              76.90047467783914,
              43.27772212763587
            ],
            [
              76.89606138510642,
              43.27614386765776
            ],
            [
              76.88693439223118,
              43.27242368015722
            ],
            [
              76.88757515932747,
              43.26646117653734
            ],
            [
              76.88733141966321,
              43.26160573221023
            ],
            [
              76.89131585313228,
              43.22760328300877
            ],
            [
              76.89542130603077,
              43.23027635299134
            ],
            [
              76.90923283680131,
              43.2353468997076
            ],
            [
              76.91051669209135,
              43.23587389471578
            ],
            [
              76.91351716115096,
              43.23727943770606
            ],
            [
              76.91483311667405,
              43.23624968564343
            ],
            [
              76.92807953789541,
              43.236914289160914
            ],
            [
              76.94878619149064,
              43.238668633409766
            ],
            [
              76.9705228133476,
              43.239669921544746
            ],
            [
              76.97310667746167,
              43.239772850303595
            ],
            [
              76.9790268028769,
              43.24728557949928
            ],
            [
              76.98138993069739,
              43.249825194174875
            ],
            [
              76.98186478337152,
              43.25336849630056
            ]
          ]
        ]
      },
      "properties": {
        "description": "<price>800</price> тенге доставка Rumi Абылай хана",
        "fill": "#ffd21e",
        "fill-opacity": 0.6,
        "stroke": "#ed4543",
        "stroke-width": "1",
        "stroke-opacity": 0.9
      }
    },
    {
      "type": "Feature",
      "id": 4,
      "geometry": {
        "type": "Polygon",
        "coordinates": [
          [
            [
              76.93442441989188,
              43.24174076369117
            ],
            [
              76.95708372164968,
              43.24330946023928
            ],
            [
              76.95518080295416,
              43.25724197176317
            ],
            [
              76.95005648860511,
              43.256822417724
            ],
            [
              76.94959070393492,
              43.260269825650084
            ],
            [
              76.94614607259697,
              43.259997179710275
            ],
            [
              76.94292535671538,
              43.25980357381995
            ],
            [
              76.93225882860855,
              43.25904539341482
            ],
            [
              76.93442441989188,
              43.24174076369117
            ]
          ]
        ]
      },
      "properties": {
        "description": "<price>500</price> тенге доставка Rumi Абылай хана",
        "fill": "#0e4779",
        "fill-opacity": 0.6,
        "stroke": "#ed4543",
        "stroke-width": "1",
        "stroke-opacity": 0.9
      }
    },
    {
      "type": "Feature",
      "id": 5,
      "geometry": {
        "type": "Polygon",
        "coordinates": [
          [
            [
              76.93526688400362,
              43.23750345553392
            ],
            [
              76.93788472000219,
              43.22827805092116
            ],
            [
              76.94110337082006,
              43.225924406218354
            ],
            [
              76.94404307190037,
              43.227885783184156
            ],
            [
              76.96045819107152,
              43.22899981698269
            ],
            [
              76.95865574661347,
              43.23358126152106
            ],
            [
              76.95749703231901,
              43.23869575215136
            ],
            [
              76.94839897934054,
              43.23831923995205
            ],
            [
              76.93526688400362,
              43.23750345553392
            ]
          ]
        ]
      },
      "properties": {
        "description": "<price>500</price> тенге Rumi Нурлы Тау",
        "fill": "#0e4779",
        "fill-opacity": 0.6,
        "stroke": "#ed4543",
        "stroke-width": "1",
        "stroke-opacity": 0.9
      }
    },
    {
      "type": "Feature",
      "id": 6,
      "geometry": {
        "type": "Point",
        "coordinates": [
          76.942689,
          43.250803
        ]
      },
      "properties": {
        "description": "Казахстан, Алматы, проспект Абылай Хана, 92А",
        "iconCaption": "Rumi Almaty",
        "marker-color": "#1e98ff"
      }
    },
    {
      "type": "Feature",
      "id": 7,
      "geometry": {
        "type": "Point",
        "coordinates": [
          76.94674271527305,
          43.230041233724144
        ]
      },
      "properties": {
        "iconCaption": "Rumi Нурлы Тау",
        "marker-color": "#1e98ff"
      }
    }
  ]
}