{
  "type": "FeatureCollection",
  "metadata": {
    "name": "delivery",
    "creator": "Yandex Map Constructor"
  },
  "features": [
    {
      "type": "Feature",
      "id": 0,
      "geometry": {
        "type": "Polygon",
        "coordinates": [
          [
            [
              76.948646,
              43.260368
            ],
            [
              76.939499,
              43.235183
            ],
            [
              76.903735,
              43.250214
            ]
          ]
        ]
      },
      "properties": {
        "description": "<div style=\"margin-bottom: 10px;\"><strong>Стоимость доставки: 500 р.</strong></div>\nм. КУ, Маршала Новикова 1 корпус 3</br>тел: +7(123)456-789</br>Часы работы: с 09-00 до 02-00</br>Служба доставки: +7(123)456-789",
        "fill": "#ed4543",
        "fill-opacity": 0.5,
        "stroke": "#b3b3b3",
        "stroke-width": "0",
        "stroke-opacity": 0
      }
    }
  ]
}