<?xml version="1.0" encoding="UTF-8"?>
<svg width="56px" height="48px" viewBox="0 0 56 48" version="1.1" xmlns="http://www.w3.org/2000/svg" xmlns:xlink="http://www.w3.org/1999/xlink">
    <!-- Generator: sketchtool 42 (36781) - http://www.bohemiancoding.com/sketch -->
    <title>D96D0117-72A1-4A4F-91EE-B77E0AFA34C0</title>
    <desc>Created with sketchtool.</desc>
    <defs></defs>
    <g id="Symbols" stroke="none" stroke-width="1" fill="none" fill-rule="evenodd">
        <g id="Icons-/-Plafe/Default" fill="#FFFFFF">
            <g id="icon-plafe">
                <g id="plafe">
                    <path d="M27.6713656,9.59264681 C27.6713656,8.78798298 27.9801779,8.42420426 28.407381,7.92061277 C28.9047737,7.33429787 29.5238066,6.60449362 29.5238066,5.22566809 C29.5238066,3.84612766 28.904882,3.11611915 28.4074894,2.52939574 C27.9801779,2.02529362 27.6713656,1.66110638 27.6713656,0.855625532 C27.6713656,0.403506383 27.2826151,0.0368680851 26.8029865,0.0368680851 C26.3233578,0.0368680851 25.9346074,0.403404255 25.9346074,0.855625532 C25.9346074,2.23516596 26.5535319,2.96517447 27.0509246,3.55189787 C27.478236,4.056 27.7870484,4.42018723 27.7870484,5.22566809 C27.7870484,6.03022979 27.478236,6.39411064 27.0510329,6.89770213 C26.5536402,7.48401702 25.9346074,8.21361702 25.9346074,9.59264681 C25.9346074,10.9708596 26.5537485,11.6999489 27.0513578,12.2859574 C27.4784526,12.7889362 27.7871567,13.1525106 27.7871567,13.9558468 C27.7871567,14.407966 28.1759072,14.7746043 28.6555358,14.7746043 C29.1351644,14.7746043 29.5239149,14.4080681 29.5239149,13.9558468 C29.5239149,12.577634 28.9047737,11.8484426 28.4070561,11.2625362 C27.979853,10.7594553 27.6713656,10.3960851 27.6713656,9.59264681 Z" id="Shape"></path>
                    <path d="M32.5882089,2.26468085 C32.394646,1.85106383 31.8819807,1.66365957 31.4431876,1.84626383 C31.0043946,2.02876596 30.8058491,2.51213617 30.999412,2.92585532 C31.3263133,3.62430638 31.4920387,4.3979234 31.4920387,5.22546383 C31.4920387,7.24657021 30.5315899,8.38723404 29.9517679,9.0708766 C29.827853,9.2123234 29.7534391,9.39380426 29.7534391,9.59172766 C29.7534391,10.0437447 30.1421896,10.410383 30.6218182,10.410383 C30.8974855,10.410383 31.1432573,10.2890553 31.3024836,10.1001191 C31.929207,9.36153191 33.2286886,7.8269617 33.2286886,5.22556596 C33.2286886,4.16885106 33.0132456,3.17269787 32.5882089,2.26468085 Z" id="Shape"></path>
                    <path d="M25.5576634,4.76762553 C25.2916364,4.39148936 24.7524333,4.28977021 24.353501,4.54059574 C24.2507079,4.60524255 24.1673037,4.68684255 24.104588,4.7789617 C23.4610754,5.53930213 22.229617,7.06069787 22.229617,9.59254468 C22.229617,10.6409872 22.4419188,11.6298894 22.8607814,12.5316766 C23.0035435,12.8389787 23.3223211,13.0222979 23.6566963,13.0222979 C23.7729207,13.0222979 23.8910948,13.0001362 24.0045029,12.9532596 C24.4437292,12.771983 24.6440077,12.2891234 24.4516364,11.8748936 C24.1296093,11.1813447 23.9663752,10.4135489 23.9663752,9.59254468 C23.9663752,7.56316596 24.9351644,6.4212766 25.5142282,5.73865532 C25.5298259,5.72017021 25.5446654,5.70107234 25.55853,5.68146383 C25.7530677,5.40643404 25.7522012,5.04255319 25.5576634,4.76762553 Z" id="Shape"></path>
                    <path d="M54.5900348,26.2396596 L48.8694778,26.2396596 C48.4788859,24.7376681 47.0394584,23.6197787 45.3276132,23.6197787 C44.8490677,22.3980255 43.8334855,21.4278128 42.5412611,21.1105021 L40.2336712,21.1468596 C39.6305609,20.0218213 38.3965029,19.2532085 36.9916286,19.2532085 C36.9307544,19.2532085 36.8700967,19.2548426 36.8095474,19.2578043 L35.1524023,18.7525787 C34.4821354,17.9910128 33.4752186,17.5066213 32.3605261,17.5066213 C31.7263288,17.5066213 31.1199691,17.6586894 30.5832573,17.9452596 C29.9035667,17.1341617 28.8560309,16.6333277 27.7293153,16.6333277 C26.6025996,16.6333277 25.5550638,17.1341617 24.8753733,17.9452596 C24.3387698,17.6586894 23.7323017,17.5066213 23.0981044,17.5066213 C21.6530445,17.5066213 20.3867079,18.3187404 19.8039613,19.4965787 C19.3810909,19.3369532 18.928325,19.2532085 18.4668936,19.2532085 C17.0218337,19.2532085 15.7554971,20.0653277 15.1727505,21.243166 C14.7498801,21.0835404 14.2971141,20.9997957 13.8356828,20.9997957 C12.1223211,20.9997957 10.6811605,22.1194213 10.2920851,23.6235574 C8.4188472,23.6197787 6.97963636,24.7377702 6.58882785,26.2396596 L0.86837911,26.2396596 C0.388858801,26.2396596 0,26.6061957 0,27.058417 C0,27.5106383 0.388750484,27.8771745 0.86837911,27.8771745 L1.11393424,27.8771745 C2.51133462,33.0581106 5.04606576,37.6335319 8.65562863,41.4846638 C11.6873191,44.7191489 14.6910638,46.5820596 16.2118375,47.4045957 C16.8876286,47.7701106 17.6662128,47.9633362 18.4635358,47.9633362 L36.9950948,47.9633362 C37.7923095,47.9633362 38.5710019,47.7701106 39.246793,47.4045957 C40.7674584,46.5820596 43.7713114,44.7191489 46.8030019,41.4846638 C50.4126731,37.633634 52.9474043,33.0582128 54.3446963,27.8771745 L54.5902515,27.8771745 C55.0697718,27.8771745 55.4586306,27.5106383 55.4586306,27.058417 C55.4586306,26.6061957 55.0696634,26.2396596 54.5900348,26.2396596 Z M41.1093075,22.7061447 C41.2755745,22.6608 41.4482321,22.6373106 41.6228395,22.6373106 C42.6681006,22.6373106 43.5200155,23.4328851 43.5331219,24.4155574 L43.532147,24.4218894 C43.5257563,24.4648851 43.5202321,24.507983 43.5173075,24.5518979 C43.498677,24.8275404 43.6286576,25.093583 43.8631644,25.259234 C44.0975629,25.4249872 44.4047505,25.4678809 44.6803095,25.373617 C44.9091838,25.2952851 45.1209439,25.2570894 45.3278298,25.2570894 C46.0683946,25.2570894 46.710499,25.6573277 47.0273269,26.2395574 L37.9377795,26.2395574 L41.1093075,22.7061447 Z M10.1306925,25.2571915 C10.3375783,25.2571915 10.5493385,25.2952851 10.7782128,25.3737191 C11.0538801,25.4681872 11.3610677,25.4249872 11.5953578,25.2593362 C11.8297563,25.093583 11.9598453,24.8276426 11.9412147,24.552 C11.9381818,24.507983 11.9326576,24.4649872 11.9263752,24.4219915 L11.9254004,24.4156596 C11.9383985,23.4329872 12.7903133,22.6374128 13.8356828,22.6374128 C14.3064294,22.6374128 14.7627698,22.8076596 15.120325,23.1170043 C15.3660967,23.3295319 15.7194275,23.3905021 16.0294313,23.2738723 C16.3392186,23.1571404 16.5506538,22.8834383 16.573617,22.5694979 C16.6420735,21.6281872 17.4737331,20.8908255 18.4670019,20.8908255 C18.9377485,20.8908255 19.394089,21.0610723 19.7516441,21.370417 C19.9975242,21.5829447 20.3508549,21.644017 20.6607505,21.5272851 C20.9705377,21.4105532 21.1819729,21.1368511 21.2049362,20.8229106 C21.2733926,19.8816 22.1050522,19.1442383 23.0983211,19.1442383 C23.6290754,19.1442383 24.1246267,19.3509447 24.4936634,19.726366 C24.6989246,19.935217 25.0047041,20.0286638 25.3006267,19.9725957 C25.596766,19.916834 25.8408046,19.7201362 25.9453308,19.4528681 C26.221648,18.7458383 26.9388162,18.2708426 27.7296402,18.2708426 C28.5204642,18.2708426 29.2374159,18.7459404 29.5139497,19.4528681 C29.6183675,19.720034 29.8624062,19.916834 30.1586538,19.9725957 C30.4549014,20.0286638 30.7603559,19.9351149 30.965617,19.726366 C31.3347621,19.3509447 31.830205,19.1442383 32.3609594,19.1442383 C33.3541199,19.1442383 34.1857795,19.8816 34.2543443,20.8229106 C34.2771992,21.1367489 34.4886344,21.4104511 34.79853,21.5272851 C35.1083172,21.644017 35.461648,21.5829447 35.7076364,21.370417 C36.0652998,21.0611745 36.5215319,20.8908255 36.9922785,20.8908255 C37.9854391,20.8908255 38.8170986,21.6281872 38.8856634,22.5694979 C38.8873965,22.5928851 38.8921625,22.6154553 38.8959536,22.6383319 L35.6634429,26.2396596 L8.43119536,26.2396596 C8.74802321,25.6572255 9.39023598,25.2571915 10.1306925,25.2571915 Z M38.3824217,45.9841021 C37.9691915,46.2075574 37.4894545,46.3257191 36.9948781,46.3257191 L18.4635358,46.3257191 C17.9690677,46.3257191 17.4892224,46.2075574 17.0759923,45.9841021 C14.5282631,44.6059915 6.15588395,39.3062809 2.90907544,27.8770723 L52.5493385,27.8770723 C49.3026383,39.3062809 40.9301509,44.6059915 38.3824217,45.9841021 Z" id="Shape"></path>
                    <path d="M24.6382669,22.9861787 L23.7120464,22.1128851 C23.3729052,21.7931234 22.823087,21.7931234 22.4840542,22.1128851 C22.144913,22.4326468 22.144913,22.9510468 22.4840542,23.2707064 L23.4102747,24.144 C23.5797911,24.3038298 23.802058,24.3837957 24.0242166,24.3837957 C24.2463752,24.3837957 24.4686422,24.3039319 24.6381586,24.144 C24.9774081,23.8242383 24.9774081,23.3057362 24.6382669,22.9861787 Z" id="Shape"></path>
                    <path d="M30.1956983,21.2394894 C29.8566654,20.9198298 29.3067389,20.9198298 28.967706,21.2394894 L28.0414855,22.112783 C27.7023443,22.4325447 27.7023443,22.9509447 28.0414855,23.2706043 C28.2110019,23.430434 28.4332689,23.5104 28.6554275,23.5104 C28.8775861,23.5104 29.0999613,23.4305362 29.2693694,23.2706043 L30.1955899,22.3973106 C30.5347311,22.0775489 30.5347311,21.5591489 30.1956983,21.2394894 Z" id="Shape"></path>
                    <path d="M33.2866383,23.6197787 L32.3604178,23.6197787 C31.8808975,23.6197787 31.4920387,23.9863149 31.4920387,24.4385362 C31.4920387,24.8906553 31.8807892,25.2572936 32.3604178,25.2572936 L33.2866383,25.2572936 C33.7661586,25.2572936 34.1550174,24.8907574 34.1550174,24.4385362 C34.1550174,23.9863149 33.7661586,23.6197787 33.2866383,23.6197787 Z" id="Shape"></path>
                    <path d="M20.0070561,22.9861787 C19.6680232,22.6665191 19.1180967,22.6665191 18.7790638,22.9861787 L17.8528433,23.8594723 C17.5137021,24.179234 17.5137021,24.697634 17.8528433,25.0172936 C18.0223598,25.1771234 18.2446267,25.2570894 18.4667853,25.2570894 C18.6889439,25.2570894 18.9112108,25.1772255 19.0807273,25.0172936 L20.0069478,24.144 C20.3461973,23.8242383 20.3461973,23.3057362 20.0070561,22.9861787 Z" id="Shape"></path>
                </g>
            </g>
        </g>
    </g>
</svg>