<?xml version="1.0" encoding="UTF-8"?>
<svg width="56px" height="48px" viewBox="0 0 56 48" version="1.1" xmlns="http://www.w3.org/2000/svg" xmlns:xlink="http://www.w3.org/1999/xlink">
    <!-- Generator: sketchtool 42 (36781) - http://www.bohemiancoding.com/sketch -->
    <title>25AF97C9-3139-4CB0-812E-944468AB2260</title>
    <desc>Created with sketchtool.</desc>
    <defs></defs>
    <g id="Symbols" stroke="none" stroke-width="1" fill="none" fill-rule="evenodd">
        <g id="Icons/Soup/Default" fill="#FFFFFF">
            <g id="Icons-/-Soup">
                <g id="Soup" transform="translate(0.000000, 7.000000)">
                    <path d="M53.0067344,31.3463732 C52.549875,31.1381249 52.0175469,31.3544562 51.8177187,31.82439 C51.6183281,32.2942116 51.8270156,32.8401477 52.2843125,33.0448035 C53.7912813,33.7201791 54.1935625,34.2841895 54.1935625,34.5105122 C54.1935625,36.0839935 44.9483125,39.1458606 28,39.1458606 C11.0516875,39.1458606 1.8064375,36.0839935 1.8064375,34.5105122 C1.8064375,34.2561237 2.33078125,33.5707567 4.316375,32.7940075 C4.78253125,32.6120288 5.01670312,32.0760842 4.83896875,31.5971693 C4.66079687,31.1191525 4.13864062,30.8783478 3.67335937,31.0612246 C1.201375,32.0280355 0,33.1561686 0,34.5105122 C0,39.6438603 18.3155,41 28,41 C37.6845,41 56,39.643748 56,34.5105122 C56,33.2838119 55.020875,32.2480714 53.0067344,31.3463732 Z" id="Shape"></path>
                    <path d="M28.9032187,19.433478 C18.7370312,19.433478 3.612875,21.0717973 3.612875,25.5851301 C3.612875,31.9917618 14.7214375,37.0097331 28.9032187,37.0097331 C43.085,37.0097331 54.1935625,31.9917618 54.1935625,25.5851301 C54.1935625,21.0717973 39.0694062,19.433478 28.9032187,19.433478 Z M28.9032187,35.2521182 C18.8449844,35.2521182 10.0252031,32.4873547 6.76429687,28.7423666 C11.7400937,30.8914966 21.6005781,31.7368885 28.9032187,31.7368885 C36.2058594,31.7368885 46.0663437,30.8914966 51.0421406,28.7423666 C47.7812344,32.4873547 38.9614531,35.2521182 28.9032187,35.2521182 Z M28.9032187,29.9792736 C13.4848437,29.9792736 5.4193125,27.1188395 5.4193125,25.5852365 C5.4193125,24.0516334 13.4848437,21.1911993 28.9032187,21.1911993 C44.3215937,21.1911993 52.387125,24.0516334 52.387125,25.5852365 C52.387125,27.1188395 44.3215937,29.9792736 28.9032187,29.9792736 Z" id="Shape"></path>
                    <path d="M26.1291406,10.3192297 C25.1866563,8.02696622 25.3891094,7.2725625 25.4579063,7.11463682 C25.8764844,7.03822804 26.1935625,6.68119257 26.1935625,6.25126014 C26.1935625,5.76556419 25.7890938,5.3724527 25.2903438,5.3724527 C24.8999844,5.3724527 24.3500469,5.56294257 23.9774063,6.09854899 C23.3308906,7.02801182 23.4856563,8.62259291 24.4515469,10.9714713 C25.9337969,14.5768378 23.9823281,15.9989139 23.8777656,16.0709595 C23.4693594,16.3421149 23.3608594,16.8836807 23.6356094,17.2844544 C23.8098438,17.5384764 24.0960781,17.6757568 24.388,17.6757568 C24.5600469,17.6757568 24.7341719,17.6277618 24.8880625,17.5281537 C25.0234688,17.4406774 28.1839688,15.3174071 26.1291406,10.3192297 Z" id="Shape"></path>
                    <path d="M35.1614375,5.04627872 C34.2189531,2.7540152 34.4214062,1.99961149 34.4902031,1.84168581 C34.9087812,1.76527703 35.2258594,1.40824155 35.2258594,0.978309122 C35.2258594,0.492613176 34.8213906,0.0995016892 34.3226406,0.0995016892 C33.9322812,0.0995016892 33.3823437,0.289991554 33.0097031,0.825597973 C32.3631875,1.75506081 32.5179531,3.34964189 33.4838437,5.69852027 C34.9660937,9.30388682 33.0145156,10.7259628 32.9100625,10.7980084 C32.5016562,11.0691639 32.3931562,11.6107297 32.6679062,12.0115034 C32.8421406,12.2655253 33.128375,12.4028057 33.4202969,12.4028057 C33.5923437,12.4028057 33.7664687,12.3547044 33.9204687,12.2552027 C34.0557656,12.1678328 37.2161562,10.0445625 35.1614375,5.04627872 Z" id="Shape"></path>
                    <path d="M30.67925,7.34290541 C29.5440469,3.2011875 29.96,2.04164696 30.0826094,1.81508108 C30.4465,1.70185135 30.7097656,1.36971791 30.7097656,0.978309122 C30.7097656,0.492613176 30.3052969,0.0995016892 29.8065469,0.0995016892 C29.6530938,0.0995016892 29.1181406,0.143239865 28.6765938,0.701939189 C27.83375,1.76953378 27.9179688,4.0893598 28.9337344,7.79593074 C30.555,13.7098429 28.3679375,16.068299 28.2575781,16.1823801 C27.9118438,16.5256875 27.9140313,17.0774696 28.2646875,17.418223 C28.4411094,17.5898767 28.6722188,17.6756503 28.9033281,17.6756503 C29.1344375,17.6756503 29.3655469,17.5898767 29.5419688,17.418223 C29.6675313,17.2964797 32.5976875,14.3433547 30.67925,7.34290541 Z" id="Shape"></path>
                    <path d="M15.3548281,24.7063226 L11.7419531,24.7063226 C11.2430937,24.7063226 10.8387344,25.0994341 10.8387344,25.5851301 C10.8387344,26.070826 11.2432031,26.4639375 11.7419531,26.4639375 L15.3548281,26.4639375 C15.8536875,26.4639375 16.2580469,26.070826 16.2580469,25.5851301 C16.2580469,25.0994341 15.8536875,24.7063226 15.3548281,24.7063226 Z" id="Shape"></path>
                    <path d="M23.4839063,26.4639375 L19.8710313,26.4639375 C19.3721719,26.4639375 18.9678125,26.857049 18.9678125,27.3427449 C18.9678125,27.8284409 19.3722813,28.2215524 19.8710313,28.2215524 L23.4839063,28.2215524 C23.9827656,28.2215524 24.387125,27.8284409 24.387125,27.3427449 C24.387125,26.857049 23.9826563,26.4639375 23.4839063,26.4639375 Z" id="Shape"></path>
                    <path d="M28,23.8275152 L24.387125,23.8275152 C23.888375,23.8275152 23.4839063,24.2206267 23.4839063,24.7063226 C23.4839063,25.1920186 23.888375,25.5851301 24.387125,25.5851301 L28,25.5851301 C28.49875,25.5851301 28.9032188,25.1920186 28.9032188,24.7063226 C28.9032188,24.2206267 28.49875,23.8275152 28,23.8275152 Z" id="Shape"></path>
                    <path d="M35.2258594,26.4639375 L31.6129844,26.4639375 C31.1142344,26.4639375 30.7097656,26.857049 30.7097656,27.3427449 C30.7097656,27.8284409 31.1142344,28.2215524 31.6129844,28.2215524 L35.2258594,28.2215524 C35.7246094,28.2215524 36.1290781,27.8284409 36.1290781,27.3427449 C36.1290781,26.857049 35.7246094,26.4639375 35.2258594,26.4639375 Z" id="Shape"></path>
                    <path d="M41.5483906,22.9487078 L37.9355156,22.9487078 C37.4367656,22.9487078 37.0322969,23.3418193 37.0322969,23.8275152 C37.0322969,24.3132111 37.4367656,24.7063226 37.9355156,24.7063226 L41.5483906,24.7063226 C42.0471406,24.7063226 42.4516094,24.3132111 42.4516094,23.8275152 C42.4516094,23.3418193 42.0471406,22.9487078 41.5483906,22.9487078 Z" id="Shape"></path>
                </g>
            </g>
        </g>
    </g>
</svg>