<?xml version="1.0" encoding="UTF-8"?>
<svg width="56px" height="48px" viewBox="0 0 56 48" version="1.1" xmlns="http://www.w3.org/2000/svg" xmlns:xlink="http://www.w3.org/1999/xlink">
    <!-- Generator: sketchtool 42 (36781) - http://www.bohemiancoding.com/sketch -->
    <title>DF4233AF-D13B-449B-8A52-643C22A26BE4</title>
    <desc>Created with sketchtool.</desc>
    <defs></defs>
    <g id="Symbols" stroke="none" stroke-width="1" fill="none" fill-rule="evenodd">
        <g id="Icons/Hot/Active" fill="#FFF">
            <g id="icon">
                <g id="Hot" transform="translate(4.000000, 8.000000)">
                    <path d="M45.7020045,30.2261497 L44.7266314,30.2261497 C44.8648186,29.4644786 44.9360685,28.6895857 44.9360685,27.9112929 C44.9360685,20.7920057 39.1863922,15 32.1190623,15 L25.0586698,15 C18.2478394,15 12.6614753,20.3798628 12.265101,27.1428221 L10.2589487,27.1490552 L8.72998295,25.6175911 C8.10298417,24.985966 7.2695483,24.6381378 6.38295628,24.6381378 C5.49627052,24.6381378 4.66283464,24.985966 4.03592962,25.6175911 C3.40911834,26.2490273 3.06374402,27.0887071 3.06374402,27.9818408 C3.06374402,28.8195373 3.36739967,29.6100131 3.92239859,30.2260553 L2.29771426,30.2260553 C1.03087299,30.2261497 0,31.2645346 0,32.5410065 C0,33.8174785 1.03087299,34.8558633 2.29790176,34.8558633 L3.2776811,34.8558633 L3.83633626,36.5442893 C4.47749125,38.482041 6.56811217,40 8.59582696,40 L39.404173,40 C41.4317941,40 43.5223212,38.4821354 44.1636637,36.5442893 L44.7223189,34.8558633 L45.7020982,34.8558633 C46.969127,34.8558633 48,33.8174785 48,32.5410065 C47.9999063,31.2645346 46.9690333,30.2261497 45.7020045,30.2261497 Z M43.4041965,27.9113874 C43.4041965,28.6912857 43.3232904,29.4673119 43.1659782,30.2262442 L41.5966063,30.2262442 C41.7783872,29.4717506 41.8723245,28.6971411 41.8723245,27.9113874 C41.8723245,22.493748 37.4971143,18.0862554 32.119156,18.0862554 C30.0951912,18.0862554 28.15232,18.7080585 26.5006357,19.8844224 C26.1552614,20.1304427 26.0731366,20.6120001 26.3174486,20.9599228 C26.5616669,21.3078454 27.0394159,21.3906707 27.3850715,21.1444616 C28.7766938,20.1532975 30.4136593,19.6294303 32.1190623,19.6294303 C36.6523347,19.6294303 40.3403587,23.3446663 40.3403587,27.9113874 C40.3403587,28.7010132 40.2287027,29.4770394 40.0116719,30.2262442 L24.2264527,30.2262442 C24.0094219,29.4770394 23.8977658,28.7010132 23.8977658,27.9113874 C23.8977658,26.1933067 24.4177961,24.5441684 25.4017004,23.1423725 C25.6460124,22.7944499 25.5638876,22.3129868 25.2185132,22.0668722 C24.8727639,21.8207575 24.3952024,21.9034883 24.1508903,22.251411 C22.9831426,23.9151877 22.3658938,25.8723944 22.3658938,27.9113874 C22.3658938,28.6970466 22.4598311,29.4716562 22.641612,30.2262442 L21.0722401,30.2262442 C20.9148342,29.4674063 20.8340218,28.6913801 20.8340218,27.9113874 C20.8340218,21.6430185 25.8965119,16.5433638 32.1190623,16.5433638 C38.3416126,16.5433638 43.4041965,21.6430185 43.4041965,27.9113874 Z M13.7736293,27.9121429 C13.7736293,21.6433018 18.8362132,16.5432693 25.0586698,16.5432693 L26.0473554,16.5432693 C22.034582,18.7268524 19.3020561,23.003449 19.3020561,27.9112929 C19.3020561,28.6895857 19.3733997,29.4644786 19.5114931,30.2261497 L13.7735356,30.2261497 L13.7735356,27.9121429 L13.7736293,27.9121429 Z M5.11920875,26.7087687 C5.45670809,26.3687791 5.90548847,26.1814071 6.38295628,26.1814071 C6.8604241,26.1814071 7.30911072,26.3686847 7.64829756,26.7102798 L9.40376288,28.4689703 C9.5477626,28.6133714 9.74285597,28.6970466 9.94629307,28.6934578 L12.2418511,28.6862803 L12.2418511,30.2262442 L6.08380062,30.2262442 L5.119115,29.2550073 C4.78161566,28.9150177 4.59570977,28.4628316 4.59570977,27.9818408 C4.59570977,27.5009444 4.78161566,27.0488527 5.11920875,26.7087687 Z M45.7020045,33.312594 L44.1860699,33.312594 L9.9574493,33.312594 C9.53435638,33.312594 9.1915133,33.6580612 9.1915133,34.0841814 C9.1915133,34.5103017 9.53435638,34.8557689 9.9574493,34.8557689 L43.1073846,34.8557689 L42.7101666,36.0562154 C42.2795737,37.3573366 40.7657016,38.4566362 39.4040793,38.4566362 L8.59573321,38.4566362 C7.23420462,38.4566362 5.72023883,37.3573366 5.28964592,36.0562154 L4.89242794,34.8557689 L6.89351779,34.8557689 C7.31661071,34.8557689 7.65945379,34.5103017 7.65945379,34.0841814 C7.65945379,33.6580612 7.31661071,33.312594 6.89351779,33.312594 L3.8164613,33.312594 L2.29780801,33.312594 C1.87537134,33.312594 1.53187201,32.9664657 1.53187201,32.5410065 C1.53187201,32.1154529 1.87546509,31.7694191 2.29780801,31.7694191 L45.7020045,31.7694191 C46.1244412,31.7694191 46.4679405,32.1155473 46.4679405,32.5410065 C46.4680342,32.9665601 46.1244412,33.312594 45.7020045,33.312594 Z" id="Shape"></path>
                    <path d="M32.0565146,23.2759766 C29.9488187,23.2759766 28.2341988,24.9905965 28.2341988,27.0982924 C28.2341988,27.5204678 28.5763743,27.8627368 28.9986433,27.8627368 C29.4209123,27.8627368 29.7630877,27.5204678 29.7630877,27.0982924 C29.7630877,25.8336374 30.7919532,24.8048655 32.0565146,24.8048655 C33.321076,24.8048655 34.3499415,25.8336374 34.3499415,27.0982924 C34.3499415,27.5204678 34.692117,27.8627368 35.114386,27.8627368 C35.536655,27.8627368 35.8788304,27.5204678 35.8788304,27.0982924 C35.8788304,24.9905965 34.1642105,23.2759766 32.0565146,23.2759766 Z" id="Shape"></path>
                    <path d="M21.4050994,9.20991813 C21.4050994,8.00336842 21.716117,7.43307602 22.0761637,6.7728655 C22.4781287,6.03574269 22.9339883,5.20018713 22.9339883,3.60383626 C22.9339883,2.0105731 22.48,1.17539181 22.0784094,0.439391813 C21.9494737,0.19948538 21.6961871,0.0363040936 21.4047251,0.0363040936 C20.9825497,0.0363040936 20.6402807,0.378573099 20.6402807,0.800748538 C20.6402807,0.933988304 20.6745263,1.05918129 20.7345029,1.16818713 C21.0944561,1.82792982 21.4050994,2.39803509 21.4050994,3.60383626 C21.4050994,4.81038596 21.0940819,5.38067836 20.7340351,6.04088889 C20.3320702,6.7780117 19.8762105,7.61356725 19.8762105,9.20991813 C19.8762105,10.806269 20.3319766,11.641731 20.7339415,12.3788538 C20.8727018,12.6332632 21.1350643,12.7773567 21.4057544,12.7773567 C21.5293567,12.7773567 21.6548304,12.7473216 21.7710409,12.683883 C22.1417544,12.4817778 22.2783626,12.0174035 22.0760702,11.6467836 C21.716117,10.9864795 21.4050994,10.4164678 21.4050994,9.20991813 Z" id="Shape"></path>
                    <path d="M26.5015205,9.20991813 C26.5015205,8.00336842 26.812538,7.43307602 27.1725848,6.7728655 C27.5745497,6.03574269 28.0304094,5.20018713 28.0304094,3.60383626 C28.0304094,2.0105731 27.5764211,1.17539181 27.1748304,0.439391813 C27.0458947,0.19948538 26.7926082,0.0363040936 26.5011462,0.0363040936 C26.0789708,0.0363040936 25.7367018,0.378573099 25.7367018,0.800748538 C25.7367018,0.933988304 25.7709474,1.05918129 25.830924,1.16818713 C26.1908772,1.82792982 26.5015205,2.39803509 26.5015205,3.60383626 C26.5015205,4.81038596 26.1905029,5.38067836 25.8304561,6.04088889 C25.4284912,6.7780117 24.9726316,7.61356725 24.9726316,9.20991813 C24.9726316,10.806269 25.4283977,11.641731 25.8303626,12.3788538 C25.9691228,12.6332632 26.2314854,12.7773567 26.5021754,12.7773567 C26.6257778,12.7773567 26.7512515,12.7473216 26.867462,12.683883 C27.2381754,12.4817778 27.3747836,12.0174035 27.1724912,11.6467836 C26.812538,10.9864795 26.5015205,10.4164678 26.5015205,9.20991813 Z" id="Shape"></path>
                </g>
            </g>
        </g>
    </g>
</svg>